{
  "code": "0",
  "result": {
    "data": [],
    "isPlus": false,
    "labelInfos": [
      {
        "labId": "1001",
        "labName": "皮肤广场",
        "labType": "1",
        "isShowRedPoint": false,
        "defaultJump": true,
        "limitCount": 0
      },
      {
        "labId": "1002",
        "labName": "人气榜单",
        "labType": "2",
        "curLabId": "1002",
        "isShowRedPoint": false,
        "defaultJump": false,
        "limitCount": 600
      },
      {
        "labId": "1003",
        "labName": "新品速递",
        "labType": "3",
        "isShowRedPoint": false,
        "defaultJump": false,
        "limitCount": 24
      },
      {
        "labId": "1015",
        "labName": "我的DIY",
        "labType": "9",
        "isShowRedPoint": false,
        "defaultJump": false,
        "limitCount": 0
      },
      {
        "labId": "1005",
        "labName": "明星广场",
        "labType": "10",
        "isShowRedPoint": false,
        "defaultJump": false,
        "limitCount": 400
      },
      {
        "labId": "1007",
        "labName": "动漫达人",
        "labType": "10",
        "isShowRedPoint": false,
        "defaultJump": false,
        "limitCount": 300
      },
      {
        "labId": "1009",
        "labName": "原创皮肤",
        "labType": "10",
        "isShowRedPoint": false,
        "defaultJump": false,
        "limitCount": 200
      },
      {
        "labId": "1014",
        "labName": "大赛作品",
        "labType": "10",
        "isShowRedPoint": false,
        "defaultJump": false,
        "limitCount": 200
      }
    ],
    "isTurnDetail": false
  },
  "success": true
}
