{
  "code": "0",
  "result": {
    "data": [
      {
        "skinId": "P202110090001",
        "skinName": "微软&李现",
        "priorityLevel": "1",
        "useCount": "315w",
        "mainImage": "http://m.360buyimg.com/growthplanet/jfs/t1/200796/6/11159/89675/6163d66eE93dea4b1/03230832e0702da5.png",
        "isDefault": false,
        "type": "1",
        "isPlusSkin": false,
        "isWhiteBarSkin": false,
        "useNum": 3150137,
        "designerName": "京东电脑数码",
        "designerImage": "http://m.360buyimg.com/growthplanet/jfs/t1/77994/2/16420/13097/6135fe2bEafe52256/e88f70e66b7e344d.jpg"
      },
      {
        "skinId": "201905240001",
        "skinName": "玩具总动员4",
        "priorityLevel": "1",
        "useCount": "89.8w",
        "mainImage": "http://m.360buyimg.com/growthplanet/jfs/t1/73451/24/496/114440/5ceb5fc1E9324599a/3b2d9a0cd5ce0a58.jpg",
        "isDefault": false,
        "type": "5",
        "isPlusSkin": false,
        "isWhiteBarSkin": false,
        "useNum": 898150
      },
      {
        "skinId": "201909250001",
        "skinName": "攀登者",
        "priorityLevel": "1",
        "useCount": "66.5w",
        "mainImage": "https://m.360buyimg.com/mplanetcms/jfs/t1/83872/15/11327/112513/5d8b60dfE21eb226c/e433a27478f695b3.png",
        "isDefault": false,
        "type": "5",
        "isPlusSkin": false,
        "isWhiteBarSkin": false,
        "useNum": 665335
      },
      {
        "skinId": "P202102040001",
        "skinName": "猫和老鼠",
        "priorityLevel": "1",
        "useCount": "5.9w",
        "mainImage": "http://m.360buyimg.com/growthplanet/jfs/t1/169539/8/5587/88357/601c0edeE18781d03/0d8e5709e24a2393.png",
        "isDefault": false,
        "type": "5",
        "isPlusSkin": false,
        "isWhiteBarSkin": false,
        "useNum": 59018,
        "designerName": "JD",
        "designerImage": "http://m.360buyimg.com/growthplanet/jfs/t1/151985/15/10138/29437/5fda153aE60aa72ca/73c6f4b2068143ad.jpg"
      },
      {
        "skinId": "P202010270009",
        "skinName": "宇航员的太空遨游",
        "priorityLevel": "1",
        "useCount": "4w",
        "mainImage": "http://m.360buyimg.com/growthplanet/jfs/t1/132283/6/13756/83936/5f97c1b7E4d2a2947/61626b597415c671.png",
        "isDefault": false,
        "type": "1",
        "isPlusSkin": false,
        "isWhiteBarSkin": false,
        "useNum": 40003,
        "designerName": "xiaojuan",
        "designerImage": "http://m.360buyimg.com/growthplanet/jfs/t1/134904/6/13900/24118/5f97c003E6ca1b7d0/d66407445eca61a7.png"
      },
      {
        "skinId": "201905140001",
        "skinName": "PLUS会员专属",
        "priorityLevel": "1",
        "useCount": "3.7w",
        "mainImage": "http://m.360buyimg.com/mplanetcms/jfs/t1/49902/23/3660/154619/5d15c9fcEb295ed3e/d9cf379590f52fb8.png",
        "isDefault": false,
        "type": "3",
        "isPlusSkin": true,
        "isWhiteBarSkin": false,
        "useNum": 37151
      },
      {
        "skinId": "P202010290017",
        "skinName": "大爱猫咪控",
        "priorityLevel": "1",
        "useCount": "3.3w",
        "mainImage": "http://m.360buyimg.com/growthplanet/jfs/t1/150151/2/12604/56113/5f9d8181Ebddf5138/435452502e57e03a.png",
        "isDefault": false,
        "type": "1",
        "isPlusSkin": false,
        "isWhiteBarSkin": false,
        "useNum": 33425,
        "designerName": "镜花水月",
        "designerImage": "http://m.360buyimg.com/growthplanet/jfs/t1/141131/29/11160/7080/5f8b7362Ef5a4844e/a830799a5dd00d6d.jpg"
      },
      {
        "skinId": "201907180002",
        "skinName": "愤怒的小鸟",
        "priorityLevel": "1",
        "useCount": "2.5w",
        "mainImage": "http://m.360buyimg.com/growthplanet/jfs/t1/62924/40/4794/69306/5d30413aE2876eed3/95889566b294ec03.jpg",
        "isDefault": false,
        "type": "5",
        "isPlusSkin": false,
        "isWhiteBarSkin": false,
        "useNum": 25292
      },
      {
        "skinId": "201908060001",
        "skinName": "愤怒的小鸟七夕来袭",
        "priorityLevel": "1",
        "useCount": "1.3w",
        "mainImage": "https://m.360buyimg.com/mplanetcms/jfs/t1/41466/18/11057/53816/5d48d771Eb80e704d/1ae6ab6b32278518.jpg",
        "isDefault": false,
        "type": "5",
        "isPlusSkin": false,
        "isWhiteBarSkin": false,
        "useNum": 12816
      },
      {
        "skinId": "201906010002",
        "skinName": "爱宠大机密2",
        "priorityLevel": "1",
        "useCount": "1.2w",
        "mainImage": "http://m.360buyimg.com/growthplanet/jfs/t1/45182/9/1457/29902/5cf3e33dE3dcfcca0/52e3968f9442df43.jpg",
        "isDefault": false,
        "type": "5",
        "isPlusSkin": false,
        "isWhiteBarSkin": false,
        "useNum": 12064
      },
      {
        "skinId": "P202012150001",
        "skinName": "JOY&DIMOO限定",
        "priorityLevel": "1",
        "useCount": "1.2w",
        "mainImage": "http://m.360buyimg.com/growthplanet/jfs/t1/155960/36/488/90572/5fd88faeE7e21f2c9/79886f51621eeebf.png",
        "isDefault": false,
        "type": "1",
        "isPlusSkin": false,
        "isWhiteBarSkin": false,
        "useNum": 11761,
        "designerName": "你的晗仔",
        "designerImage": "http://m.360buyimg.com/growthplanet/jfs/t1/138460/3/18375/32523/5fd888e3E9439112a/55bcd07f1aa717c7.jpg"
      },
      {
        "skinId": "P202010280034",
        "skinName": "我们恋爱了",
        "priorityLevel": "1",
        "useCount": "1.2w",
        "mainImage": "http://m.360buyimg.com/growthplanet/jfs/t1/131117/19/13988/86203/5f993232E24fbe035/b9785c59bc918da4.png",
        "isDefault": false,
        "type": "1",
        "isPlusSkin": false,
        "isWhiteBarSkin": false,
        "useNum": 11671,
        "designerName": "wlt的展示",
        "designerImage": "http://m.360buyimg.com/growthplanet/jfs/t1/141898/39/12324/5520/5f992c4dE2e373d6e/35b7ceb22633fcfa.jpg"
      },
      {
        "skinId": "P202010290028",
        "skinName": "圣诞节夜",
        "priorityLevel": "1",
        "useCount": "1.1w",
        "mainImage": "http://m.360buyimg.com/growthplanet/jfs/t1/125534/38/16660/58567/5f9ac954E5465af92/820f051bcce3209a.png",
        "isDefault": false,
        "type": "1",
        "isPlusSkin": false,
        "isWhiteBarSkin": false,
        "useNum": 11025,
        "designerName": "xiaopeng",
        "designerImage": "http://m.360buyimg.com/growthplanet/jfs/t1/147979/25/12457/10158/5f9ac7c0E12b77dbd/323f4590d6298924.jpg"
      },
      {
        "skinId": "P202104010001",
        "skinName": "闪耀暖暖x妮维雅",
        "priorityLevel": "1",
        "useCount": "1.1w",
        "mainImage": "http://m.360buyimg.com/growthplanet/jfs/t1/163586/9/15935/74475/606532bbE1689307c/357d5618c325e457.png",
        "isDefault": false,
        "type": "5",
        "isPlusSkin": false,
        "isWhiteBarSkin": false,
        "useNum": 10926,
        "designerName": "妮维雅",
        "designerImage": "http://m.360buyimg.com/growthplanet/jfs/t1/157722/20/16506/3704/606525d2E3d3b3a37/3f9b02e6b9610faa.jpg"
      },
      {
        "skinId": "P202010280057",
        "skinName": "孤独的旅行者",
        "priorityLevel": "1",
        "useCount": "1.1w",
        "mainImage": "http://m.360buyimg.com/growthplanet/jfs/t1/142100/6/12307/115179/5f994016E1f532bdb/185b427988a38242.png",
        "isDefault": false,
        "type": "1",
        "isPlusSkin": false,
        "isWhiteBarSkin": false,
        "useNum": 10509,
        "designerName": "培培购",
        "designerImage": "http://m.360buyimg.com/growthplanet/jfs/t1/128028/24/16590/5034/5f993de6E0844ca6b/5511105917adc7b2.jpg"
      },
      {
        "skinId": "P202010280009",
        "skinName": "汉堡包",
        "priorityLevel": "1",
        "useCount": "9834",
        "mainImage": "http://m.360buyimg.com/growthplanet/jfs/t1/149158/26/12335/52446/5f991644E29a5b5a3/bfd0f07dc793dddc.png",
        "isDefault": false,
        "type": "1",
        "isPlusSkin": false,
        "isWhiteBarSkin": false,
        "useNum": 9834,
        "designerName": "小王",
        "designerImage": "http://m.360buyimg.com/growthplanet/jfs/t1/143672/14/12389/4334/5f990fdcEba717796/bb91eb1f80b0f2d1.jpg"
      },
      {
        "skinId": "201905210002",
        "skinName": "JOY与锦鲤",
        "priorityLevel": "1",
        "useCount": "9359",
        "mainImage": "http://m.360buyimg.com/mplanetcms/jfs/t29350/35/1524421061/37857/282744c4/5ce3a510Nad270989.jpg",
        "isDefault": false,
        "type": "5",
        "isPlusSkin": false,
        "isWhiteBarSkin": false,
        "useNum": 9359
      },
      {
        "skinId": "P202102230001",
        "skinName": "东东萌宠",
        "priorityLevel": "1",
        "useCount": "8257",
        "mainImage": "http://m.360buyimg.com/growthplanet/jfs/t1/162176/17/7665/150880/6034a604Efd669945/5f03f0344309c243.png",
        "isDefault": false,
        "type": "5",
        "isPlusSkin": false,
        "isWhiteBarSkin": false,
        "useNum": 8257,
        "designerName": "东东萌宠",
        "designerImage": "http://m.360buyimg.com/growthplanet/jfs/t1/168278/20/7472/19455/60349e9cEce9b7ff7/8f180fb6d7fff160.png"
      },
      {
        "skinId": "P202010170001",
        "skinName": "热血青春",
        "priorityLevel": "1",
        "useCount": "7872",
        "mainImage": "http://m.360buyimg.com/growthplanet/jfs/t1/144400/3/11954/85467/5f93f0bfE6d84d564/3f208bad679b11d6.png",
        "isDefault": false,
        "type": "1",
        "isPlusSkin": false,
        "isWhiteBarSkin": false,
        "useNum": 7872,
        "designerName": "微光",
        "designerImage": "http://m.360buyimg.com/growthplanet/jfs/t1/129190/23/14875/16826/5f842e28E16e8f30e/3e4ca994305696bb.jpg"
      },
      {
        "skinId": "201908020005",
        "skinName": "我爱Kakao Friends",
        "priorityLevel": "1",
        "useCount": "7372",
        "mainImage": "https://m.360buyimg.com/mplanetcms/jfs/t1/60165/13/6591/54162/5d4905abEe92a87ab/af86922a1efbada1.jpg",
        "isDefault": false,
        "type": "5",
        "isPlusSkin": false,
        "isWhiteBarSkin": false,
        "useNum": 7372
      }
    ],
    "isPlus": false,
    "labelInfos": [
      {
        "labId": "1001",
        "labName": "皮肤广场",
        "labType": "1",
        "curLabId": "1001",
        "isShowRedPoint": false,
        "defaultJump": true,
        "limitCount": 0
      },
      {
        "labId": "1002",
        "labName": "人气榜单",
        "labType": "2",
        "isShowRedPoint": false,
        "defaultJump": false,
        "limitCount": 600
      },
      {
        "labId": "1003",
        "labName": "新品速递",
        "labType": "3",
        "isShowRedPoint": false,
        "defaultJump": false,
        "limitCount": 24
      },
      {
        "labId": "1015",
        "labName": "我的DIY",
        "labType": "9",
        "isShowRedPoint": false,
        "defaultJump": false,
        "limitCount": 0
      },
      {
        "labId": "1005",
        "labName": "明星广场",
        "labType": "10",
        "isShowRedPoint": false,
        "defaultJump": false,
        "limitCount": 400
      },
      {
        "labId": "1007",
        "labName": "动漫达人",
        "labType": "10",
        "isShowRedPoint": false,
        "defaultJump": false,
        "limitCount": 300
      },
      {
        "labId": "1009",
        "labName": "原创皮肤",
        "labType": "10",
        "isShowRedPoint": false,
        "defaultJump": false,
        "limitCount": 200
      },
      {
        "labId": "1014",
        "labName": "大赛作品",
        "labType": "10",
        "isShowRedPoint": false,
        "defaultJump": false,
        "limitCount": 200
      }
    ],
    "isTurnDetail": false
  },
  "success": true
}
